GE 461 Introduction to Data Science
…
As it can be seen in the above box plot, giving bobble-heads significantly increased the attendance values but mostly affected the matches where the opponents are Mets and Snakes and they have high variance.

Lets see deeper with only the mentioned teams:

grouped <- games %>% filter(opponent == "Angels" | opponent == "Mets" | opponent == "Nationals" | opponent == "White Sox" | opponent == "Snakes")
grouped

## # A tibble: 22 x 12
##    month   day attend day_of_week opponent   temp skies  day_night cap   shirt
##    <fct> <dbl>  <dbl> <fct>       <chr>     <dbl> <chr>  <chr>     <fct> <fct>
##  1 APR      27  44807 Friday      Nationals    19 Clear  Night     NO    NO   
##  2 APR      28  54242 Saturday    Nationals    22 Clear  Night     NO    NO   
##  3 APR      29  48753 Sunday      Nationals    23 Clear  Day       NO    YES  
##  4 MAY      14  24312 Monday      Snakes       19 Clear  Night     NO    NO   
##  5 MAY      15  47077 Tuesday     Snakes       21 Clear  Night     NO    NO   
##  6 JUN      11  50559 Monday      Angels       20 Clear  Night     NO    YES  
##  7 JUN      12  55279 Tuesday     Angels       19 Cloudy Night     NO    NO   
##  8 JUN      13  43494 Wednesday   Angels       19 Clear  Night     NO    NO   
##  9 JUN      15  40432 Friday      White Sox    19 Clear  Night     NO    NO   
## 10 JUN      16  45210 Saturday    White Sox    20 Clear  Night     NO    NO   
## #  with 12 more rows, and 2 more variables: fireworks <fct>, bobblehead <fct>
…
As in our final try, we can see that the model that only contain the feature bobble-head has the best BIC score which is 1436.14 and this concludes that this is the best model.

As our sample is small, BIC score can return under-fitted models. Therefore it is better to use AIC score for model selection.

However, we can also use k-fold validation for model selection:

nfold <-  4
set.seed(1)
id_fold <- rep(1:4, len = nrow(games)) %>% sample()
games

## # A tibble: 81 x 12
##    month   day attend day_of_week opponent   temp skies  day_night cap   shirt
##    <fct> <dbl>  <dbl> <fct>       <chr>     <dbl> <chr>  <chr>     <fct> <fct>
##  1 APR      10  56000 Tuesday     Pirates      19 Clear  Day       NO    NO   
##  2 APR      11  29729 Wednesday   Pirates      14 Cloudy Night     NO    NO   
##  3 APR      12  28328 Thursday    Pirates      14 Cloudy Night     NO    NO   
##  4 APR      13  31601 Friday      Padres       12 Cloudy Night     NO    NO   
##  5 APR      14  46549 Saturday    Padres       14 Cloudy Night     NO    NO   
##  6 APR      15  38359 Sunday      Padres       18 Clear  Day       NO    NO   
##  7 APR      23  26376 Monday      Braves       16 Cloudy Night     NO    NO   
##  8 APR      24  44014 Tuesday     Braves       17 Cloudy Night     NO    NO   
##  9 APR      25  26345 Wednesday   Braves       18 Cloudy Night     NO    NO   
## 10 APR      27  44807 Friday      Nationals    19 Clear  Night     NO    NO   
## #  with 71 more rows, and 2 more variables: fireworks <fct>, bobblehead <fct>
…
